PRDNTN59E01C632T;1;Mon Mar 11 18:28:31 CET 2019;N. RICHESTA 115835203
CLCSNN93C70H501Z;1;Mon Mar 11 18:29:23 CET 2019;N. RICHESTA 115835209
PRVMRA00H66F213D;1;Mon Mar 11 18:30:08 CET 2019;N. RICHESTA 115835214
CLCSNN93C70H501Z;1;Mon Mar 11 18:30:45 CET 2019;N. RICHESTA 115835220
PRDNTN59E01C632T;2;Mon Mar 11 18:32:36 CET 2019;N. RICHESTA 115835235
CLCSNN93C70H501Z;2;Mon Mar 11 18:34:52 CET 2019;N. RICHESTA 115835260
PRDNTN59E01C632T;3;Mon Mar 11 18:36:42 CET 2019;N. RICHESTA 115835284
CLCSNN93C70H501Z;3;Mon Mar 11 18:38:58 CET 2019;N. RICHESTA 115835323
PRVMRA00H66F213D;3;Mon Mar 11 18:39:45 CET 2019;N. RICHESTA 115835337
CLCSNN93C70H501Z;5;Mon Mar 11 18:41:54 CET 2019;N. RICHESTA 115835379
CLCSNN93C70H501Z;4;Mon Mar 11 18:43:05 CET 2019;N. RICHESTA 115835409
PRVMRA00H66F213D;4;Mon Mar 11 18:43:51 CET 2019;N. RICHESTA 115835423
PRDNTN59E01C632T;5;Mon Mar 11 18:44:55 CET 2019;N. RICHESTA 115835445
CLCSNN93C70H501Z;6;Mon Mar 11 18:46:01 CET 2019;N. RICHESTA 115835470
CLCSNN93C70H501Z;5;Mon Mar 11 18:47:13 CET 2019;N. RICHESTA 115835497
PRVMRA00H66F213D;5;Mon Mar 11 18:48:00 CET 2019;N. RICHESTA 115835511
PRDNTN59E01C632T;6;Mon Mar 11 18:49:03 CET 2019;N. RICHESTA 115835531
CLCSNN93C70H501Z;7;Mon Mar 11 18:50:05 CET 2019;N. RICHESTA 115835557
CLCSNN93C70H501Z;6;Mon Mar 11 18:51:20 CET 2019;N. RICHESTA 115835582
PRVMRA00H66F213D;6;Mon Mar 11 18:52:10 CET 2019;N. RICHESTA 115835597
PRDNTN59E01C632T;7;Mon Mar 11 18:53:08 CET 2019;N. RICHESTA 115835617
CLCSNN93C70H501Z;8;Mon Mar 11 18:54:13 CET 2019;N. RICHESTA 115835641
CLCSNN93C70H501Z;7;Mon Mar 11 18:55:28 CET 2019;N. RICHESTA 115835666
PRVMRA00H66F213D;7;Mon Mar 11 18:56:18 CET 2019;N. RICHESTA 115835683
PRDNTN59E01C632T;8;Mon Mar 11 18:57:17 CET 2019;N. RICHESTA 115835703
CLCSNN93C70H501Z;9;Mon Mar 11 18:58:19 CET 2019;N. RICHESTA 115835725
CLCSNN93C70H501Z;8;Mon Mar 11 18:59:36 CET 2019;N. RICHESTA 115835752
PRDNTN59E01C632T;9;Mon Mar 11 19:01:26 CET 2019;N. RICHESTA 115835789
PRVMRA00H66F213D;9;Mon Mar 11 19:02:23 CET 2019;N. RICHESTA 115835809
CLCSNN93C70H501Z;10;Mon Mar 11 19:02:26 CET 2019;N. RICHESTA 115835814
CLCSNN93C70H501Z;9;Mon Mar 11 19:03:43 CET 2019;N. RICHESTA 115835837
PRDNTN59E01C632T;10;Mon Mar 11 19:05:33 CET 2019;N. RICHESTA 115835873
PRVMRA00H66F213D;10;Mon Mar 11 19:06:28 CET 2019;N. RICHESTA 115835894
CLCSNN93C70H501Z;10;Mon Mar 11 19:07:48 CET 2019;N. RICHESTA 115835922
PRDNTN59E01C632T;11;Mon Mar 11 19:09:39 CET 2019;N. RICHESTA 115835961
PRVMRA00H66F213D;11;Mon Mar 11 19:10:34 CET 2019;N. RICHESTA 115835983
CLCSNN93C70H501Z;11;Mon Mar 11 19:11:56 CET 2019;N. RICHESTA 115836010
CLCSNN93C70H501Z;12;Mon Mar 11 19:12:02 CET 2019;N. RICHESTA 115836014
PRDNTN59E01C632T;12;Mon Mar 11 19:13:46 CET 2019;N. RICHESTA 115836046
PRVMRA00H66F213D;12;Mon Mar 11 19:14:39 CET 2019;N. RICHESTA 115836069
CLCSNN93C70H501Z;12;Mon Mar 11 19:16:02 CET 2019;N. RICHESTA 115836097
PRDNTN59E01C632T;13;Mon Mar 11 19:17:53 CET 2019;N. RICHESTA 115836136
CLCSNN93C70H501Z;13;Mon Mar 11 19:20:09 CET 2019;N. RICHESTA 115836183
CLCSNN93C70H501Z;14;Mon Mar 11 19:21:41 CET 2019;N. RICHESTA 115836205
PRVMRA00H66F213D;14;Mon Mar 11 19:23:10 CET 2019;N. RICHESTA 115836240
CLCSNN93C70H501Z;15;Mon Mar 11 19:25:48 CET 2019;N. RICHESTA 115836283
PRDNTN59E01C632T;15;Mon Mar 11 19:26:33 CET 2019;N. RICHESTA 115836299
PRVMRA00H66F213D;15;Mon Mar 11 19:27:17 CET 2019;N. RICHESTA 115836316
