RESIDENZIALE;GLDZNN85C04F839V
BUSINESS;33466460137
CONDOMINIO;88287980358
BUSINESS;16274320874
BUSINESS;81809510548
CONDOMINIO;84138000421
RESIDENZIALE;GLDRDG85C04F839T
IMPRESA;03926160866
RESIDENZIALE;GLDQXH85C04F839L
RESIDENZIALE;GLDTBF85C04F839N
RESIDENZIALE;GLDKBN85C04F839M
BUSINESS;17778690119
BUSINESS;23577690680
RESIDENZIALE;GLDZGP85C04F839S
RESIDENZIALE;GLDMQY85C04F839F
RESIDENZIALE;GLDSPZ85C04F839J
BUSINESS;48190440148
BUSINESS;70810780489
RESIDENZIALE;GLDGNW85C04F839L
RESIDENZIALE;GLDPSV85C04F839L
RESIDENZIALE;GLDGRW85C04F839Z
RESIDENZIALE;GLDQGP85C04F839J
RESIDENZIALE;GLDLHT85C04F839K
RESIDENZIALE;GLDLXF85C04F839E
RESIDENZIALE;GLDBFH85C04F839K
RESIDENZIALE;GLDSFR85C04F839L
BUSINESS;81445040066
BUSINESS;43558570131
CONDOMINIO;80283610642
CONDOMINIO;80219640101
IMPRESA;16807970666
IMPRESA;60740330059
RESIDENZIALE;GLDYWK85C04F839T
RESIDENZIALE;GLDHGC85C04F839N
IMPRESA;52932980593
IMPRESA;02805350168
RESIDENZIALE;GLDRHD85C04F839A
